[gd_scene load_steps=8 format=3 uid="uid://bga3xxyotl3y6"]

[ext_resource type="PackedScene" uid="uid://d3ovjolktmfvc" path="res://assets/gltf/fridge_A_decorated.gltf" id="1_j4711"]
[ext_resource type="Script" path="res://scenes/appliances/appliance_fridge_a_decorated2.gd" id="1_vcnu2"]
[ext_resource type="Material" path="res://assets/materials/outline.tres" id="2_tmiqu"]
[ext_resource type="PackedScene" uid="uid://bavxpum6d8c16" path="res://systems/interaction/Interactable.tscn" id="3_i07k8"]

[sub_resource type="ConvexPolygonShape3D" id="ConvexPolygonShape3D_7w0c8"]
points = PackedVector3Array(-0.100202, 0.600002, 0.349951, -0.108816, 0.556051, 0.456001, 0.0431027, 0.493111, 0.456001, 0.0765797, 0.526685, 0.349951, -0.100202, 0.600002, 0.08258, -1.6002, 0.600002, 0.349951, -0.0561533, 0.393952, 0.499971, -1.59139, 0.556051, 0.456001, -1.54832, -0.10135, 0.740033, 0.105945, 0.341192, 0.456001, 0.149994, 0.349904, 0.349951, 0.0765797, 0.526685, 0.08258, 0.0431027, 0.493111, 0.0295549, -0.108816, 0.556051, 0.0295549, -1.6002, 0.600002, 0.08258, -1.77698, 0.526685, 0.349951, -1.74331, 0.493111, 0.456001, -0.000162721, -0.325019, 0.499971, -1.14621, -0.123081, 0.717939, -1.80615, 0.341192, 0.456001, -1.57788, -0.10135, 0.710405, -1.54832, -0.198649, 0.740033, 0.105945, -0.325019, 0.456001, 0.149994, 0.349904, 0.08258, 0.149994, -0.325019, 0.349951, -0.0561533, 0.393952, 0, 0.105945, 0.341192, 0.0295549, -1.59139, 0.556051, 0.0295549, -1.74331, 0.493111, 0.0295549, -1.77698, 0.526685, 0.08258, -1.85001, 0.349904, 0.349951, -0.000162721, -0.378074, 0.456001, 0.0865639, -0.368383, 0.436587, -1.14621, -0.177016, 0.717939, -1.80615, -0.325019, 0.456001, -1.57788, -0.198649, 0.710405, -1.78677, -0.368383, 0.436587, -1.54832, -0.228308, 0.710405, 0.149994, -0.325019, 0.08258, 0.105945, -0.378074, 0.349951, -0.000162721, -0.325019, 0, -1.64425, 0.393952, 0, 0.105945, -0.325019, 0.0295549, -1.80615, 0.341192, 0.0295549, -1.85001, 0.349904, 0.08258, -1.85001, -0.325019, 0.349951, -0.000162721, -0.4, 0.349951, -1.70005, -0.378074, 0.456001, -1.80615, -0.378074, 0.349951, -1.70005, -0.4, 0.349951, 0.105945, -0.378074, 0.08258, 0.0865639, -0.368383, 0.0392617, -0.000162721, -0.378074, 0.0295549, -1.70005, -0.325019, 0, -1.80615, -0.325019, 0.0295549, -1.85001, -0.325019, 0.08258, -0.000162721, -0.4, 0.08258, -1.80615, -0.378074, 0.08258, -1.70005, -0.4, 0.08258, -1.70005, -0.378074, 0.0295549, -1.78677, -0.368383, 0.0392617)

[sub_resource type="ConvexPolygonShape3D" id="ConvexPolygonShape3D_kf4xm"]
points = PackedVector3Array(-0.000162721, 0.7, 0.349951, -0.000162721, 0.677976, 0.456001, 0.0865639, 0.668285, 0.436587, 0.105945, 0.677976, 0.349951, -0.000162721, 0.7, 0.08258, -1.70005, 0.7, 0.349951, -0.000162721, 0.624971, 0.499971, -1.70005, 0.677976, 0.456001, -1.54832, 0.528211, 0.710405, -1.54832, 0.498552, 0.740033, 0.105945, 0.624971, 0.456001, 0.149994, 0.624971, 0.349951, 0.105945, 0.677976, 0.08258, 0.0865639, 0.668285, 0.0392617, -0.000162721, 0.677976, 0.0295549, -1.70005, 0.7, 0.08258, -1.80615, 0.677976, 0.349951, -1.78677, 0.668285, 0.436587, -0.0561533, -0.594145, 0.499971, 0.105945, -0.541287, 0.456001, -1.14621, 0.476821, 0.717939, -1.14621, 0.422935, 0.717939, -1.80615, 0.624971, 0.456001, -1.57788, 0.498552, 0.710405, -1.54832, 0.401204, 0.740033, 0.149994, 0.624971, 0.08258, 0.149994, -0.550096, 0.349951, -0.000162721, 0.624971, 0, 0.105945, 0.624971, 0.0295549, -1.70005, 0.677976, 0.0295549, -1.78677, 0.668285, 0.0392617, -1.80615, 0.677976, 0.08258, -1.85001, 0.624971, 0.349951, -0.108816, -0.756096, 0.456001, 0.0431027, -0.693254, 0.456001, -1.64425, -0.594145, 0.499971, -1.80615, -0.541287, 0.456001, -1.57788, 0.401204, 0.710405, -1.74331, -0.693254, 0.456001, 0.149994, -0.550096, 0.08258, 0.0765797, -0.726878, 0.349951, 0.105945, -0.541287, 0.0295549, -0.0561533, -0.594145, 0, -1.70005, 0.624971, 0, -1.80615, 0.624971, 0.0295549, -1.85001, 0.624971, 0.08258, -1.85001, -0.550096, 0.349951, -0.100202, -0.799998, 0.349951, -1.59139, -0.756096, 0.456001, -1.77698, -0.726878, 0.349951, 0.0765797, -0.726878, 0.08258, 0.0431027, -0.693254, 0.0295549, -0.108816, -0.756096, 0.0295549, -1.64425, -0.594145, 0, -1.80615, -0.541287, 0.0295549, -1.85001, -0.550096, 0.08258, -0.100202, -0.799998, 0.08258, -1.6002, -0.799998, 0.349951, -1.77698, -0.726878, 0.08258, -1.59139, -0.756096, 0.0295549, -1.74331, -0.693254, 0.0295549, -1.6002, -0.799998, 0.08258)

[sub_resource type="ConvexPolygonShape3D" id="ConvexPolygonShape3D_ovtyb"]
points = PackedVector3Array(-1, 0.249853, -0.850062, -0.956147, 0.258663, -0.956127, -0.926977, 0.0731695, -0.850062, -1, 0.249853, 0.432461, -1, 2.2499, -0.850062, -0.794244, 0.205805, -1, -0.893305, 0.106695, -0.956127, -0.956147, 2.24109, -0.956127, -0.741386, 0.0438038, -0.956127, -0.750196, 0, -0.850062, -0.926977, 0.0731695, 0.432461, -0.956147, 0.258663, 0.485494, -1, 2.2499, 0.432461, -0.926977, 2.42659, -0.850062, 0.793853, 0.205805, -1, -0.794244, 2.29395, -1, -0.893305, 2.39306, -0.956127, 0.74119, 0.0438038, -0.956127, -0.750196, 0, 0.432461, 0.749804, 0, -0.850062, -0.741386, 0.0438038, 0.485494, -0.893305, 0.106695, 0.485494, -0.794244, 0.205805, 0.49997, -0.956147, 2.24109, 0.485494, -0.926977, 2.42659, 0.432461, -0.750196, 2.5, -0.850062, 0.955951, 0.258663, -0.956127, 0.893109, 0.106695, -0.956127, 0.793853, 2.29395, -1, -0.741386, 2.45595, -0.956127, 0.926586, 0.0731695, -0.850062, 0.749804, 0, 0.432461, 0.74119, 0.0438038, 0.485494, 0.793853, 0.205805, 0.49997, 0.120791, 0.644332, 0.509129, -0.794244, 2.29395, 0.49997, -0.893305, 2.39306, 0.485494, -0.750196, 2.5, 0.432461, 0.749804, 2.5, -0.850062, 1, 0.249853, -0.850062, 0.955951, 2.24109, -0.956127, 0.74119, 2.45595, -0.956127, 0.893109, 2.39306, -0.956127, 0.926586, 0.0731695, 0.432461, 0.893109, 0.106695, 0.485494, 0.955951, 0.258663, 0.485494, 0.793853, 2.29395, 0.49997, -0.741386, 2.45595, 0.485494, 0.749804, 2.5, 0.432461, 0.926586, 2.42659, -0.850062, 1, 0.249853, 0.432461, 1, 2.2499, -0.850062, 0.955951, 2.24109, 0.485494, 0.893109, 2.39306, 0.485494, 0.74119, 2.45595, 0.485494, 0.926586, 2.42659, 0.432461, 1, 2.2499, 0.432461)

[node name="fridge_A_decorated2" type="Node3D"]

[node name="fridge_A_decorated2" parent="." instance=ExtResource("1_j4711")]

[node name="fridge_A_decorated_door_bottom" parent="fridge_A_decorated2/fridge_A_decorated" index="0"]
script = ExtResource("1_vcnu2")
highlight_material = ExtResource("2_tmiqu")

[node name="Interactable" parent="fridge_A_decorated2/fridge_A_decorated/fridge_A_decorated_door_bottom" index="0" instance=ExtResource("3_i07k8")]
transform = Transform3D(1, 0, 0, 0, 1, 0, 0, 0, 1, -0.850006, -0.799997, -0.5)

[node name="fridge_A_decorated_door_top" parent="fridge_A_decorated2/fridge_A_decorated" index="1"]
script = ExtResource("1_vcnu2")

[node name="Interactable" parent="fridge_A_decorated2/fridge_A_decorated/fridge_A_decorated_door_top" index="0" instance=ExtResource("3_i07k8")]
transform = Transform3D(1, 0, 0, 0, 1, 0, 0, 0, 1, -0.850006, -1.9, -0.5)

[node name="fridge_a_decorated_door_top" type="StaticBody3D" parent="fridge_A_decorated2/fridge_A_decorated" index="2"]

[node name="CollisionShape3D" type="CollisionShape3D" parent="fridge_A_decorated2/fridge_A_decorated/fridge_a_decorated_door_top"]
transform = Transform3D(1, 0, 0, 0, 1, 0, 0, 0, 1, 0.850006, 1.9, 0.5)
shape = SubResource("ConvexPolygonShape3D_7w0c8")

[node name="fridge_a_decorated_door_bottom" type="StaticBody3D" parent="fridge_A_decorated2/fridge_A_decorated" index="3"]

[node name="CollisionShape3D" type="CollisionShape3D" parent="fridge_A_decorated2/fridge_A_decorated/fridge_a_decorated_door_bottom"]
transform = Transform3D(1, 0, 0, 0, 1, 0, 0, 0, 1, 0.850006, 0.799997, 0.5)
shape = SubResource("ConvexPolygonShape3D_kf4xm")

[node name="fridge_a_decorated" type="StaticBody3D" parent="fridge_A_decorated2"]

[node name="CollisionShape3D" type="CollisionShape3D" parent="fridge_A_decorated2/fridge_a_decorated"]
shape = SubResource("ConvexPolygonShape3D_ovtyb")

[connection signal="focused" from="fridge_A_decorated2/fridge_A_decorated/fridge_A_decorated_door_bottom/Interactable" to="fridge_A_decorated2/fridge_A_decorated/fridge_A_decorated_door_bottom" method="_on_interactable_focused"]
[connection signal="interacted" from="fridge_A_decorated2/fridge_A_decorated/fridge_A_decorated_door_bottom/Interactable" to="fridge_A_decorated2/fridge_A_decorated/fridge_A_decorated_door_bottom" method="_on_interactable_interacted"]
[connection signal="unfocused" from="fridge_A_decorated2/fridge_A_decorated/fridge_A_decorated_door_bottom/Interactable" to="fridge_A_decorated2/fridge_A_decorated/fridge_A_decorated_door_bottom" method="_on_interactable_unfocused"]
[connection signal="focused" from="fridge_A_decorated2/fridge_A_decorated/fridge_A_decorated_door_top/Interactable" to="fridge_A_decorated2/fridge_A_decorated/fridge_A_decorated_door_top" method="_on_interactable_focused"]
[connection signal="interacted" from="fridge_A_decorated2/fridge_A_decorated/fridge_A_decorated_door_top/Interactable" to="fridge_A_decorated2/fridge_A_decorated/fridge_A_decorated_door_top" method="_on_interactable_interacted"]
[connection signal="unfocused" from="fridge_A_decorated2/fridge_A_decorated/fridge_A_decorated_door_top/Interactable" to="fridge_A_decorated2/fridge_A_decorated/fridge_A_decorated_door_top" method="_on_interactable_unfocused"]

[editable path="fridge_A_decorated2"]
